{
  "IsRegenerate": false,
  "MenuPosition": null,
  "RelativeNamespace": "RequestTypesAssetTypes",
  "EntityName": "RequestTypesAssetType",
  "EntityNamePlural": "RequestTypesAssetTypes",
  "TableName": "RequestTypesAssetTypes",
  "PrimaryKeyType": "int",
  "BaseClass": "FullAuditedEntity",
  "EntityHistory": false,
  "AutoMigration": true,
  "UpdateDatabase": true,
  "CreateUserInterface": false,
  "CreateViewOnly": true,
  "CreateExcelExport": false,
  "PagePermission": {
    "Host": true,
    "Tenant": true
  },
  "Properties": [],
  "NavigationProperties": [
    {
      "Namespace": "Test.AssetTypes",
      "ForeignEntityName": "AssetType",
      "IdType": "int",
      "IsNullable": true,
      "PropertyName": "AssetTypeId",
      "DisplayPropertyName": "AssetTypeName",
      "DuplicationNumber": 0,
      "RelationType": "single"
    },
    {
      "Namespace": "Test.RequestTypes",
      "ForeignEntityName": "RequestType",
      "IdType": "int",
      "IsNullable": true,
      "PropertyName": "RequestTypeId",
      "DisplayPropertyName": "TenantId",
      "DuplicationNumber": 0,
      "RelationType": "single"
    }
  ],
  "EnumDefinitions": []
}