{
  "IsRegenerate": true,
  "MenuPosition": "main",
  "RelativeNamespace": "RequestAssets",
  "EntityName": "RequestAsset",
  "EntityNamePlural": "RequestAssets",
  "TableName": "RequestAssets",
  "PrimaryKeyType": "int",
  "BaseClass": "FullAuditedEntity",
  "EntityHistory": false,
  "AutoMigration": true,
  "UpdateDatabase": true,
  "CreateUserInterface": true,
  "CreateViewOnly": true,
  "CreateExcelExport": true,
  "PagePermission": {
    "Host": true,
    "Tenant": true
  },
  "Properties": [
    {
      "Name": "AssetRequest",
      "Type": "string",
      "MaxLength": -1,
      "MinLength": -1,
      "Range": {
        "IsRangeSet": false,
        "MinimumValue": 0,
        "MaximumValue": 0
      },
      "Required": false,
      "Nullable": false,
      "Regex": "",
      "UserInterface": {
        "AdvancedFilter": true,
        "List": true,
        "CreateOrUpdate": true
      }
    }
  ],
  "NavigationProperties": [
    {
      "Namespace": "Test.Assets",
      "ForeignEntityName": "Asset",
      "IdType": "int",
      "IsNullable": true,
      "PropertyName": "AssetId",
      "DisplayPropertyName": "AssetName",
      "DuplicationNumber": 0,
      "RelationType": "single"
    },
    {
      "Namespace": "Test.Requests",
      "ForeignEntityName": "Request",
      "IdType": "int",
      "IsNullable": true,
      "PropertyName": "RequestId",
      "DisplayPropertyName": "TenantId",
      "DuplicationNumber": 0,
      "RelationType": "single"
    }
  ],
  "EnumDefinitions": []
}